Name,Email,Phone,Company,Title,Note
"Husain Hasan",husain@eventsador.com,37771574,"Eventsador Events Management","Director Of Operations",
"Jackson Pollack",pollack@email.com,0015178568545,"Self Employed",Painter,
